Grey Code Corporation Customer Renewal
…
custs = custs %>%
mutate(Renewal = as.numeric(levels(Renewal))[Renewal]) %>%
mutate(cumulative_renewals = cumsum(Renewal))

custs = custs %>%
mutate(percent_of_custs = CustCount/n()) %>%
mutate(percent_of_renewals = cumulative_renewals/sum(Renewal))
custs

## # A tibble: 12,622 x 6
##    CustCount ProbRenewal Renewal cumulative_renewals percent_of_custs
##        <int>       <dbl>   <dbl>               <dbl>            <dbl>
##  1         1       0.994       1                   1        0.0000792
##  2         2       0.994       1                   2        0.000158 
##  3         3       0.992       1                   3        0.000238 
##  4         4       0.99        0                   3        0.000317 
##  5         5       0.99        1                   4        0.000396 
##  6         6       0.99        0                   4        0.000475 
##  7         7       0.986       1                   5        0.000555 
##  8         8       0.98        0                   5        0.000634 
##  9         9       0.98        1                   6        0.000713 
## 10        10       0.978       1                   7        0.000792 
## # i 12,612 more rows
## # i 1 more variable: percent_of_renewals <dbl>
…
custs = custs %>%
mutate(propRenew = cumulative_renewals / CustCount) %>%
mutate(baseline = sum(Renewal)/n()) %>%
mutate(lift = propRenew/baseline)
# View a subset of features to make it
# easier to see.
custs %>%select(percent_of_custs, percent_of_renewals, propRenew, baseline, lift)

## # A tibble: 12,622 x 5
##    percent_of_custs percent_of_renewals propRenew baseline  lift
##               <dbl>               <dbl>     <dbl>    <dbl> <dbl>
##  1        0.0000792             0.00373     1       0.0212  47.1
##  2        0.000158              0.00746     1       0.0212  47.1
##  3        0.000238              0.0112      1       0.0212  47.1
##  4        0.000317              0.0112      0.75    0.0212  35.3
##  5        0.000396              0.0149      0.8     0.0212  37.7
##  6        0.000475              0.0149      0.667   0.0212  31.4
##  7        0.000555              0.0187      0.714   0.0212  33.6
##  8        0.000634              0.0187      0.625   0.0212  29.4
##  9        0.000713              0.0224      0.667   0.0212  31.4
## 10        0.000792              0.0261      0.7     0.0212  33.0
## # i 12,612 more rows
…
