Grey Code Corporation Customer Renewal
…
custs = custs %>%
mutate(Renewal = as.numeric(levels(Renewal))[Renewal]) %>%
mutate(cumulative_renewals = cumsum(Renewal))
custs

## # A tibble: 10,000 x 4
##    CustCount ProbRenewal Renewal cumulative_renewals
##        <int>       <dbl>   <dbl>               <dbl>
##  1         1       0.998       1                   1
##  2         2       0.996       1                   2
##  3         3       0.996       1                   3
##  4         4       0.996       1                   4
##  5         5       0.994       1                   5
##  6         6       0.992       1                   6
##  7         7       0.992       1                   7
##  8         8       0.992       1                   8
##  9         9       0.992       1                   9
## 10        10       0.99        1                  10
## # i 9,990 more rows

custs = custs %>%
mutate(percent_of_custs = CustCount/n()) %>%
mutate(percent_of_renewals = cumulative_renewals/sum(Renewal))
custs

## # A tibble: 10,000 x 6
##    CustCount ProbRenewal Renewal cumulative_renewals percent_of_custs
##        <int>       <dbl>   <dbl>               <dbl>            <dbl>
##  1         1       0.998       1                   1           0.0001
##  2         2       0.996       1                   2           0.0002
##  3         3       0.996       1                   3           0.0003
##  4         4       0.996       1                   4           0.0004
##  5         5       0.994       1                   5           0.0005
##  6         6       0.992       1                   6           0.0006
##  7         7       0.992       1                   7           0.0007
##  8         8       0.992       1                   8           0.0008
##  9         9       0.992       1                   9           0.0009
## 10        10       0.99        1                  10           0.001 
## # i 9,990 more rows
## # i 1 more variable: percent_of_renewals <dbl>
…
4

## [1] 4

custs = custs %>%
mutate(propRenew = cumulative_renewals / CustCount) %>%
mutate(baseline = sum(Renewal)/n()) %>%
mutate(lift = propRenew/baseline)
# View a subset of features to make it
# easier to see.
custs %>%select(percent_of_custs, percent_of_renewals, propRenew, baseline, lift)

## # A tibble: 10,000 x 5
##    percent_of_custs percent_of_renewals propRenew baseline  lift
##               <dbl>               <dbl>     <dbl>    <dbl> <dbl>
##  1           0.0001             0.00437         1   0.0229  43.7
##  2           0.0002             0.00873         1   0.0229  43.7
##  3           0.0003             0.0131          1   0.0229  43.7
##  4           0.0004             0.0175          1   0.0229  43.7
##  5           0.0005             0.0218          1   0.0229  43.7
##  6           0.0006             0.0262          1   0.0229  43.7
##  7           0.0007             0.0306          1   0.0229  43.7
##  8           0.0008             0.0349          1   0.0229  43.7
##  9           0.0009             0.0393          1   0.0229  43.7
## 10           0.001              0.0437          1   0.0229  43.7
## # i 9,990 more rows
…
